{
  "cordova-plugin-device": {
    "source": {
      "type": "registry",
      "id": "cordova-plugin-device"
    },
    "is_top_level": true,
    "variables": {}
  },
  "cordova-plugin-dialogs": {
    "source": {
      "type": "registry",
      "id": "cordova-plugin-dialogs"
    },
    "is_top_level": true,
    "variables": {}
  },
  "cordova-plugin-nativestorage": {
    "source": {
      "type": "registry",
      "id": "cordova-plugin-nativestorage"
    },
    "is_top_level": true,
    "variables": {}
  },
  "cordova-plugin-qrscanner": {
    "source": {
      "type": "registry",
      "id": "cordova-plugin-qrscanner"
    },
    "is_top_level": true,
    "variables": {}
  },
  "cordova-plugin-compat": {
    "source": {
      "type": "registry",
      "id": "cordova-plugin-compat@^1.2.0"
    },
    "is_top_level": true,
    "variables": {}
  },
  "cordova-plugin-whitelist": {
    "source": {
      "type": "registry",
      "id": "cordova-plugin-whitelist@1"
    },
    "is_top_level": true,
    "variables": {}
  }
}